#CTDBP Status
#7370_DateTime: 20240508 141129
#S#SamplesRecorded = 1
#Begin Data
SL
2024/05/08 12:11:20.995 DSPHOX02054,2024-05-08T14:00:01,825,0000,22.2267,7.9556,-0.999736,0.602,30.6078,4.45320,4.898,6.8,22.2
S>
#End Data
